%YAML 1.1
%TAG !u! tag:unity3d.com,2011:
--- !u!319 &101100000
AvatarMask:
  m_ObjectHideFlags: 0
  m_CorrespondingSourceObject: {fileID: 0}
  m_PrefabInstance: {fileID: 0}
  m_PrefabAsset: {fileID: 0}
  m_Name: RPG-Character-Full-AvatarMask
  m_Mask: 01000000010000000100000001000000010000000100000001000000010000000100000001000000010000000100000001000000
  m_Elements:
  - m_Path: 
    m_Weight: 1
  - m_Path: Motion
    m_Weight: 1
  - m_Path: Motion/B_Pelvis
    m_Weight: 0
  - m_Path: Motion/B_Pelvis/B_L_Thigh
    m_Weight: 0
  - m_Path: Motion/B_Pelvis/B_L_Thigh/B_L_Calf
    m_Weight: 0
  - m_Path: Motion/B_Pelvis/B_L_Thigh/B_L_Calf/B_L_Foot
    m_Weight: 0
  - m_Path: Motion/B_Pelvis/B_L_Thigh/B_L_Calf/B_L_Foot/B_L_Toe0
    m_Weight: 0
  - m_Path: Motion/B_Pelvis/B_R_Thigh
    m_Weight: 0
  - m_Path: Motion/B_Pelvis/B_R_Thigh/B_R_Calf
    m_Weight: 0
  - m_Path: Motion/B_Pelvis/B_R_Thigh/B_R_Calf/B_R_Foot
    m_Weight: 0
  - m_Path: Motion/B_Pelvis/B_R_Thigh/B_R_Calf/B_R_Foot/B_R_Toe0
    m_Weight: 0
  - m_Path: Motion/B_Pelvis/B_Spine
    m_Weight: 0
  - m_Path: Motion/B_Pelvis/B_Spine/B_Spine1
    m_Weight: 1
  - m_Path: Motion/B_Pelvis/B_Spine/B_Spine1/B_Spine2
    m_Weight: 1
  - m_Path: Motion/B_Pelvis/B_Spine/B_Spine1/B_Spine2/B_L_Clavicle
    m_Weight: 1
  - m_Path: Motion/B_Pelvis/B_Spine/B_Spine1/B_Spine2/B_L_Clavicle/B_L_UpperArm
    m_Weight: 1
  - m_Path: Motion/B_Pelvis/B_Spine/B_Spine1/B_Spine2/B_L_Clavicle/B_L_UpperArm/B_L_Forearm
    m_Weight: 1
  - m_Path: Motion/B_Pelvis/B_Spine/B_Spine1/B_Spine2/B_L_Clavicle/B_L_UpperArm/B_L_Forearm/B_L_Hand
    m_Weight: 1
  - m_Path: Motion/B_Pelvis/B_Spine/B_Spine1/B_Spine2/B_L_Clavicle/B_L_UpperArm/B_L_Forearm/B_L_Hand/B_L_Finger0
    m_Weight: 1
  - m_Path: Motion/B_Pelvis/B_Spine/B_Spine1/B_Spine2/B_L_Clavicle/B_L_UpperArm/B_L_Forearm/B_L_Hand/B_L_Finger0/B_L_Finger01
    m_Weight: 1
  - m_Path: Motion/B_Pelvis/B_Spine/B_Spine1/B_Spine2/B_L_Clavicle/B_L_UpperArm/B_L_Forearm/B_L_Hand/B_L_Finger0/B_L_Finger01/B_L_Finger02
    m_Weight: 1
  - m_Path: Motion/B_Pelvis/B_Spine/B_Spine1/B_Spine2/B_L_Clavicle/B_L_UpperArm/B_L_Forearm/B_L_Hand/B_L_Finger1
    m_Weight: 1
  - m_Path: Motion/B_Pelvis/B_Spine/B_Spine1/B_Spine2/B_L_Clavicle/B_L_UpperArm/B_L_Forearm/B_L_Hand/B_L_Finger1/B_L_Finger11
    m_Weight: 1
  - m_Path: Motion/B_Pelvis/B_Spine/B_Spine1/B_Spine2/B_L_Clavicle/B_L_UpperArm/B_L_Forearm/B_L_Hand/B_L_Finger1/B_L_Finger11/B_L_Finger12
    m_Weight: 1
  - m_Path: Motion/B_Pelvis/B_Spine/B_Spine1/B_Spine2/B_L_Clavicle/B_L_UpperArm/B_L_Forearm/B_L_Hand/B_L_Finger2
    m_Weight: 1
  - m_Path: Motion/B_Pelvis/B_Spine/B_Spine1/B_Spine2/B_L_Clavicle/B_L_UpperArm/B_L_Forearm/B_L_Hand/B_L_Finger2/B_L_Finger21
    m_Weight: 1
  - m_Path: Motion/B_Pelvis/B_Spine/B_Spine1/B_Spine2/B_L_Clavicle/B_L_UpperArm/B_L_Forearm/B_L_Hand/B_L_Finger2/B_L_Finger21/B_L_Finger22
    m_Weight: 1
  - m_Path: Motion/B_Pelvis/B_Spine/B_Spine1/B_Spine2/B_L_Clavicle/B_L_UpperArm/B_L_Forearm/B_L_Hand/B_L_Finger3
    m_Weight: 1
  - m_Path: Motion/B_Pelvis/B_Spine/B_Spine1/B_Spine2/B_L_Clavicle/B_L_UpperArm/B_L_Forearm/B_L_Hand/B_L_Finger3/B_L_Finger31
    m_Weight: 1
  - m_Path: Motion/B_Pelvis/B_Spine/B_Spine1/B_Spine2/B_L_Clavicle/B_L_UpperArm/B_L_Forearm/B_L_Hand/B_L_Finger3/B_L_Finger31/B_L_Finger32
    m_Weight: 1
  - m_Path: Motion/B_Pelvis/B_Spine/B_Spine1/B_Spine2/B_L_Clavicle/B_L_UpperArm/B_L_Forearm/B_L_Hand/B_L_Finger4
    m_Weight: 1
  - m_Path: Motion/B_Pelvis/B_Spine/B_Spine1/B_Spine2/B_L_Clavicle/B_L_UpperArm/B_L_Forearm/B_L_Hand/B_L_Finger4/B_L_Finger41
    m_Weight: 1
  - m_Path: Motion/B_Pelvis/B_Spine/B_Spine1/B_Spine2/B_L_Clavicle/B_L_UpperArm/B_L_Forearm/B_L_Hand/B_L_Finger4/B_L_Finger41/B_L_Finger42
    m_Weight: 1
  - m_Path: Motion/B_Pelvis/B_Spine/B_Spine1/B_Spine2/B_Neck
    m_Weight: 1
  - m_Path: Motion/B_Pelvis/B_Spine/B_Spine1/B_Spine2/B_Neck/B_Head
    m_Weight: 1
  - m_Path: Motion/B_Pelvis/B_Spine/B_Spine1/B_Spine2/B_R_Clavicle
    m_Weight: 1
  - m_Path: Motion/B_Pelvis/B_Spine/B_Spine1/B_Spine2/B_R_Clavicle/B_R_UpperArm
    m_Weight: 1
  - m_Path: Motion/B_Pelvis/B_Spine/B_Spine1/B_Spine2/B_R_Clavicle/B_R_UpperArm/B_R_Forearm
    m_Weight: 1
  - m_Path: Motion/B_Pelvis/B_Spine/B_Spine1/B_Spine2/B_R_Clavicle/B_R_UpperArm/B_R_Forearm/B_R_Hand
    m_Weight: 1
  - m_Path: Motion/B_Pelvis/B_Spine/B_Spine1/B_Spine2/B_R_Clavicle/B_R_UpperArm/B_R_Forearm/B_R_Hand/B_R_Finger0
    m_Weight: 1
  - m_Path: Motion/B_Pelvis/B_Spine/B_Spine1/B_Spine2/B_R_Clavicle/B_R_UpperArm/B_R_Forearm/B_R_Hand/B_R_Finger0/B_R_Finger01
    m_Weight: 1
  - m_Path: Motion/B_Pelvis/B_Spine/B_Spine1/B_Spine2/B_R_Clavicle/B_R_UpperArm/B_R_Forearm/B_R_Hand/B_R_Finger0/B_R_Finger01/B_R_Finger02
    m_Weight: 1
  - m_Path: Motion/B_Pelvis/B_Spine/B_Spine1/B_Spine2/B_R_Clavicle/B_R_UpperArm/B_R_Forearm/B_R_Hand/B_R_Finger1
    m_Weight: 1
  - m_Path: Motion/B_Pelvis/B_Spine/B_Spine1/B_Spine2/B_R_Clavicle/B_R_UpperArm/B_R_Forearm/B_R_Hand/B_R_Finger1/B_R_Finger11
    m_Weight: 1
  - m_Path: Motion/B_Pelvis/B_Spine/B_Spine1/B_Spine2/B_R_Clavicle/B_R_UpperArm/B_R_Forearm/B_R_Hand/B_R_Finger1/B_R_Finger11/B_R_Finger12
    m_Weight: 1
  - m_Path: Motion/B_Pelvis/B_Spine/B_Spine1/B_Spine2/B_R_Clavicle/B_R_UpperArm/B_R_Forearm/B_R_Hand/B_R_Finger2
    m_Weight: 1
  - m_Path: Motion/B_Pelvis/B_Spine/B_Spine1/B_Spine2/B_R_Clavicle/B_R_UpperArm/B_R_Forearm/B_R_Hand/B_R_Finger2/B_R_Finger21
    m_Weight: 1
  - m_Path: Motion/B_Pelvis/B_Spine/B_Spine1/B_Spine2/B_R_Clavicle/B_R_UpperArm/B_R_Forearm/B_R_Hand/B_R_Finger2/B_R_Finger21/B_R_Finger22
    m_Weight: 1
  - m_Path: Motion/B_Pelvis/B_Spine/B_Spine1/B_Spine2/B_R_Clavicle/B_R_UpperArm/B_R_Forearm/B_R_Hand/B_R_Finger3
    m_Weight: 1
  - m_Path: Motion/B_Pelvis/B_Spine/B_Spine1/B_Spine2/B_R_Clavicle/B_R_UpperArm/B_R_Forearm/B_R_Hand/B_R_Finger3/B_R_Finger31
    m_Weight: 1
  - m_Path: Motion/B_Pelvis/B_Spine/B_Spine1/B_Spine2/B_R_Clavicle/B_R_UpperArm/B_R_Forearm/B_R_Hand/B_R_Finger3/B_R_Finger31/B_R_Finger32
    m_Weight: 1
  - m_Path: Motion/B_Pelvis/B_Spine/B_Spine1/B_Spine2/B_R_Clavicle/B_R_UpperArm/B_R_Forearm/B_R_Hand/B_R_Finger4
    m_Weight: 1
  - m_Path: Motion/B_Pelvis/B_Spine/B_Spine1/B_Spine2/B_R_Clavicle/B_R_UpperArm/B_R_Forearm/B_R_Hand/B_R_Finger4/B_R_Finger41
    m_Weight: 1
  - m_Path: Motion/B_Pelvis/B_Spine/B_Spine1/B_Spine2/B_R_Clavicle/B_R_UpperArm/B_R_Forearm/B_R_Hand/B_R_Finger4/B_R_Finger41/B_R_Finger42
    m_Weight: 1
  - m_Path: RPG-Character-Mesh
    m_Weight: 0
