%YAML 1.1
%TAG !u! tag:unity3d.com,2011:
--- !u!114 &11400000
MonoBehaviour:
  m_ObjectHideFlags: 0
  m_CorrespondingSourceObject: {fileID: 0}
  m_PrefabInstance: {fileID: 0}
  m_PrefabAsset: {fileID: 0}
  m_GameObject: {fileID: 0}
  m_Enabled: 1
  m_EditorHideFlags: 0
  m_Script: {fileID: 11500000, guid: 3ad70174b079c2f4ebc7931d3dd1af6f, type: 3}
  m_Name: DefaultPrefabObjects
  m_EditorClassIdentifier: 
  _prefabs:
  - {fileID: 3265675031864437906, guid: 850a6be6603ec2b4e8b8a624c7afc4d4, type: 3}
  - {fileID: 3265675031864437906, guid: 11e5e4cc94541654d92041e2327c3c07, type: 3}
  - {fileID: 611616139817875448, guid: bf5f023b4017a5e41a9815ec5745df3d, type: 3}
  - {fileID: 9117857247562382210, guid: b2991431a5f893e49937d01b6da44ff8, type: 3}
  - {fileID: 201277550, guid: d904f93bc171bb144ba33c5155282f6f, type: 3}
  - {fileID: 27039729695437543, guid: f820efff6a2871447b961fc755212ba3, type: 3}
  - {fileID: 8475222101369129519, guid: 8cf33e8e99a9b0c4c8f29ff725650de6, type: 3}
